{
	"template" : "sim-data*",
	"mappings" : {
		"sim" : {
			"properties" : {
				"countryCode" : {
					"type" : "text",
					"index" : true
				},
				"countryName" : {
					"type" : "text",
					"index" : true
				},
				"sim_purchase_details" : {
					"properties" : {
						"availability" : {
							"type" : "text",
							"index" : false,
							"norms" : false
						},
						"availableAt" : {
							"type" : "text",
							"index" : false,
							"norms" : false
						},
						"contract" : {
							"type" : "text",
							"index" : false,
							"norms" : false
						},
						"dataOnly" : {
							"type" : "text",
							"index" : false,
							"norms" : false
						},
						"documents" : {
							"type" : "text",
							"index" : false,
							"norms" : false
						},
						"link" : {
							"type" : "text",
							"index" : false,
							"norms" : false
						},
						"maxActDays" : {
							"type" : "text",
							"index" : false,
							"norms" : false
						},
						"minActDays" : {
							"type" : "text",
							"index" : false,
							"norms" : false
						},
						"news" : {
							"type" : "text",
							"index" : false,
							"norms" : false
						},
						"reco" : {
							"type" : "text",
							"index" : false,
							"norms" : false
						}
					}
				}
			}
		}
	}
}